<svg width="23" height="22" viewBox="0 0 23 22" fill="none" xmlns="http://www.w3.org/2000/svg">
<path d="M6.8335 11L9.8335 14L15.8335 8M21.3335 11C21.3335 16.5228 16.8563 21 11.3335 21C5.81065 21 1.3335 16.5228 1.3335 11C1.3335 5.47715 5.81065 1 11.3335 1C16.8563 1 21.3335 5.47715 21.3335 11Z" stroke="#039855" stroke-width="2" stroke-linecap="round" stroke-linejoin="round"/>
</svg>
