<svg width="21" height="20" viewBox="0 0 21 20" fill="none" xmlns="http://www.w3.org/2000/svg">
<path d="M7.99935 7.49984H8.00768M12.9993 12.4998H13.0077M13.8327 6.6665L7.16602 13.3332M18.8327 9.99984C18.8327 14.6022 15.1017 18.3332 10.4993 18.3332C5.89698 18.3332 2.16602 14.6022 2.16602 9.99984C2.16602 5.39746 5.89698 1.6665 10.4993 1.6665C15.1017 1.6665 18.8327 5.39746 18.8327 9.99984ZM8.41602 7.49984C8.41602 7.72996 8.22947 7.9165 7.99935 7.9165C7.76923 7.9165 7.58268 7.72996 7.58268 7.49984C7.58268 7.26972 7.76923 7.08317 7.99935 7.08317C8.22947 7.08317 8.41602 7.26972 8.41602 7.49984ZM13.416 12.4998C13.416 12.73 13.2295 12.9165 12.9993 12.9165C12.7692 12.9165 12.5827 12.73 12.5827 12.4998C12.5827 12.2697 12.7692 12.0832 12.9993 12.0832C13.2295 12.0832 13.416 12.2697 13.416 12.4998Z" stroke="#475467" stroke-width="1.33" stroke-linecap="round" stroke-linejoin="round"/>
</svg>
