<svg width="24" height="24" viewBox="0 0 24 24" fill="none" xmlns="http://www.w3.org/2000/svg">
<path d="M12 8V16M8 12H16M22 12C22 17.5228 17.5228 22 12 22C6.47715 22 2 17.5228 2 12C2 6.47715 6.47715 2 12 2C17.5228 2 22 6.47715 22 12Z" stroke="url(#paint0_linear_2601_64787)" stroke-width="2" stroke-linecap="round" stroke-linejoin="round"/>
<defs>
<linearGradient id="paint0_linear_2601_64787" x1="21.4737" y1="0.767122" x2="1.17842" y2="21.1833" gradientUnits="userSpaceOnUse">
<stop stop-color="#97268E"/>
<stop offset="1" stop-color="#7C96C9"/>
</linearGradient>
</defs>
</svg>
