<svg width="23" height="22" viewBox="0 0 23 22" fill="none" xmlns="http://www.w3.org/2000/svg">
<path d="M12.6665 5.00009L6.16833 6.29973C5.80533 6.37233 5.62383 6.40863 5.47603 6.4969C5.34536 6.57493 5.23423 6.68176 5.1511 6.80925C5.05707 6.95346 5.01364 7.13338 4.92678 7.49323L1.6665 21.0001M1.6665 21.0001L15.1734 17.7398C15.5332 17.653 15.7131 17.6095 15.8573 17.5155C15.9848 17.4324 16.0917 17.3212 16.1697 17.1906C16.258 17.0428 16.2943 16.8613 16.3669 16.4983L17.6665 10.0001M1.6665 21.0001L9.2525 13.4141M20.5351 6.86872L15.7979 2.13146C15.4019 1.73545 15.2038 1.53744 14.9755 1.46325C14.7747 1.39799 14.5583 1.39799 14.3575 1.46325C14.1292 1.53744 13.9311 1.73545 13.5351 2.13146L12.7979 2.86872C12.4019 3.26474 12.2038 3.46275 12.1297 3.69108C12.0644 3.89192 12.0644 4.10827 12.1297 4.30911C12.2038 4.53744 12.4019 4.73545 12.7979 5.13146L17.5351 9.86872C17.9311 10.2647 18.1292 10.4627 18.3575 10.5369C18.5583 10.6022 18.7747 10.6022 18.9755 10.5369C19.2038 10.4627 19.4019 10.2647 19.7979 9.86872L20.5351 9.13146C20.9312 8.73545 21.1292 8.53744 21.2033 8.30911C21.2686 8.10827 21.2686 7.89192 21.2033 7.69108C21.1292 7.46275 20.9311 7.26474 20.5351 6.86872ZM10.6665 10.0001C11.7711 10.0001 12.6665 10.8955 12.6665 12.0001C12.6665 13.1047 11.7711 14.0001 10.6665 14.0001C9.56193 14.0001 8.6665 13.1047 8.6665 12.0001C8.6665 10.8955 9.56193 10.0001 10.6665 10.0001Z" stroke="white" stroke-width="1.5" stroke-linecap="round" stroke-linejoin="round"/>
</svg>
