<svg width="22" height="22" viewBox="0 0 22 22" fill="none" xmlns="http://www.w3.org/2000/svg">
<path d="M20 20H12M1.5 20.5L7.04927 18.3657C7.40421 18.2291 7.58168 18.1609 7.74772 18.0718C7.8952 17.9926 8.0358 17.9012 8.16804 17.7986C8.31692 17.6831 8.45137 17.5486 8.72028 17.2797L20 6C21.1046 4.89543 21.1046 3.10457 20 2C18.8955 0.895428 17.1046 0.895427 16 1.99999L4.72028 13.2797C4.45138 13.5486 4.31692 13.6831 4.20139 13.832C4.09877 13.9642 4.0074 14.1048 3.92823 14.2523C3.83911 14.4183 3.77085 14.5958 3.63433 14.9507L1.5 20.5ZM1.5 20.5L3.55812 15.149C3.7054 14.766 3.77903 14.5746 3.90534 14.4869C4.01572 14.4102 4.1523 14.3813 4.2843 14.4065C4.43533 14.4353 4.58038 14.5804 4.87048 14.8705L7.12957 17.1295C7.41967 17.4196 7.56472 17.5647 7.59356 17.7157C7.61877 17.8477 7.58979 17.9843 7.51314 18.0947C7.42545 18.221 7.23399 18.2946 6.85107 18.4419L1.5 20.5Z" stroke="white" stroke-width="1.5" stroke-linecap="round" stroke-linejoin="round"/>
</svg>
