<svg width="22" height="22" viewBox="0 0 22 22" fill="none" xmlns="http://www.w3.org/2000/svg">
<path d="M8.9998 19.2633C5.91189 18.5185 3.48131 16.0879 2.73662 12.9999M19.2636 13C18.5188 16.0879 16.0883 18.5185 13.0004 19.2633M13.0002 2.73657C16.0882 3.48129 18.5188 5.91193 19.2636 8.99989M2.73682 9C3.48152 5.91199 5.9122 3.4813 9.0002 2.73657M2.6 13H3.4C3.96005 13 4.24008 13 4.45399 12.891C4.64215 12.7951 4.79513 12.6422 4.89101 12.454C5 12.2401 5 11.9601 5 11.4V10.6C5 10.0399 5 9.75992 4.89101 9.54601C4.79513 9.35785 4.64215 9.20487 4.45399 9.10899C4.24008 9 3.96005 9 3.4 9H2.6C2.03995 9 1.75992 9 1.54601 9.10899C1.35785 9.20487 1.20487 9.35785 1.10899 9.54601C1 9.75992 1 10.0399 1 10.6V11.4C1 11.9601 1 12.2401 1.10899 12.454C1.20487 12.6422 1.35785 12.7951 1.54601 12.891C1.75992 13 2.03995 13 2.6 13ZM18.6 13H19.4C19.9601 13 20.2401 13 20.454 12.891C20.6422 12.7951 20.7951 12.6422 20.891 12.454C21 12.2401 21 11.9601 21 11.4V10.6C21 10.0399 21 9.75992 20.891 9.54601C20.7951 9.35785 20.6422 9.20487 20.454 9.10899C20.2401 9 19.9601 9 19.4 9H18.6C18.0399 9 17.7599 9 17.546 9.10899C17.3578 9.20487 17.2049 9.35785 17.109 9.54601C17 9.75992 17 10.0399 17 10.6V11.4C17 11.9601 17 12.2401 17.109 12.454C17.2049 12.6422 17.3578 12.7951 17.546 12.891C17.7599 13 18.0399 13 18.6 13ZM10.6 5H11.4C11.9601 5 12.2401 5 12.454 4.89101C12.6422 4.79513 12.7951 4.64215 12.891 4.45399C13 4.24008 13 3.96005 13 3.4V2.6C13 2.03995 13 1.75992 12.891 1.54601C12.7951 1.35785 12.6422 1.20487 12.454 1.10899C12.2401 1 11.9601 1 11.4 1H10.6C10.0399 1 9.75992 1 9.54601 1.10899C9.35785 1.20487 9.20487 1.35785 9.10899 1.54601C9 1.75992 9 2.03995 9 2.6V3.4C9 3.96005 9 4.24008 9.10899 4.45399C9.20487 4.64215 9.35785 4.79513 9.54601 4.89101C9.75992 5 10.0399 5 10.6 5ZM10.6 21H11.4C11.9601 21 12.2401 21 12.454 20.891C12.6422 20.7951 12.7951 20.6422 12.891 20.454C13 20.2401 13 19.9601 13 19.4V18.6C13 18.0399 13 17.7599 12.891 17.546C12.7951 17.3578 12.6422 17.2049 12.454 17.109C12.2401 17 11.9601 17 11.4 17H10.6C10.0399 17 9.75992 17 9.54601 17.109C9.35785 17.2049 9.20487 17.3578 9.10899 17.546C9 17.7599 9 18.0399 9 18.6V19.4C9 19.9601 9 20.2401 9.10899 20.454C9.20487 20.6422 9.35785 20.7951 9.54601 20.891C9.75992 21 10.0399 21 10.6 21Z" stroke="white" stroke-width="1.5" stroke-linecap="round" stroke-linejoin="round"/>
</svg>
